Frequência das palavras e nuvem de palavras
…
## Joining, by = "Palavra"

# Visualiza frequencia de palavras
frequenciaPalavras

## # A tibble: 5,537 x 2
##    Palavra       n
##    <chr>     <int>
##  1 clientes    948
##  2 segmentos   415
##  3 risco       365
##  4 portfolio   342
##  5 cliente     333
##  6 empresa     331
##  7 segmento    306
##  8 clv         297
##  9 retorno     277
## 10 marketing   265
## # … with 5,527 more rows
…
